…
```r
## in most days smoke is present in grids, but the number is significantly different
```


```r
## Print days with more than 50,000 grids with smoke 
preds %>% 
  group_by(date) %>% 
  summarise(n = n()) %>% 
  filter(n > 50000)
```

```
## # A tibble: 203 × 2
##    date           n
##    <date>     <int>
##  1 2006-06-29 55846
##  2 2006-09-06 50299
##  3 2006-09-07 70197
##  4 2007-08-04 73813
##  5 2007-08-05 56158
##  6 2007-08-14 50262
##  7 2007-08-16 52165
##  8 2007-08-18 60469
##  9 2008-07-01 54000
## 10 2008-07-28 50578
## # … with 193 more rows
```
…
